Exploring Voter Turnout
…
df24_tract_above1_totalpop_simp <- df24_tract_above1_totalpop %>% 
  select(planning_geog, ballots_cast, adult_18plus, pop18_turnout)

There are 11 tracts over 100%.

where number of registered voters is greater than the number of adults 18+

df24_tract_above1_totalpop_reg <- df24_tract_total %>% 
  filter(registered_pop18>1)

df24_tract_above1_totalpop_reg

# A tibble: 111 × 14
   data_geog_type   planning_geog_type ofm_estimate_year ofm_vintage parcel_year
   <chr>            <chr>                          <int>       <int>       <int>
 1 voter_precinct_… tract20                         2024        2024        2018
 2 voter_precinct_… tract20                         2024        2024        2018
 3 voter_precinct_… tract20                         2024        2024        2018
 4 voter_precinct_… tract20                         2024        2024        2018
 5 voter_precinct_… tract20                         2024        2024        2018
 6 voter_precinct_… tract20                         2024        2024        2018
 7 voter_precinct_… tract20                         2024        2024        2018
 8 voter_precinct_… tract20                         2024        2024        2018
 9 voter_precinct_… tract20                         2024        2024        2018
10 voter_precinct_… tract20                         2024        2024        2018
# ℹ 101 more rows
# ℹ 9 more variables: planning_geog <chr>, reg_voters <dbl>,
#   ballots_cast <dbl>, regvote_turnout <dbl>, adult_18plus <dbl>,
#   acs_year <dbl>, acs_reliability <chr>, pop18_turnout <dbl>,
#   registered_pop18 <dbl>
…
df24_tract_above1_adultpop_simp <- df24_tract_above1_adultpop %>% 
  select(planning_geog, ballots_cast, adult_18plus, pop18_turnout)

There are 9 tracts over 100% - compared to 11 tracts when considering the total population.

where number of registered voters is greater than the number of adults 18+

df24_tract_above1_adultpop_reg <- df24_tract_adult %>% 
  filter(registered_pop18>1)

df24_tract_above1_adultpop_reg

# A tibble: 109 × 14
   data_geog_type   planning_geog_type ofm_estimate_year ofm_vintage parcel_year
   <chr>            <chr>                          <int>       <int>       <int>
 1 voter_precinct_… tract20                         2024        2024        2018
 2 voter_precinct_… tract20                         2024        2024        2018
 3 voter_precinct_… tract20                         2024        2024        2018
 4 voter_precinct_… tract20                         2024        2024        2018
 5 voter_precinct_… tract20                         2024        2024        2018
 6 voter_precinct_… tract20                         2024        2024        2018
 7 voter_precinct_… tract20                         2024        2024        2018
 8 voter_precinct_… tract20                         2024        2024        2018
 9 voter_precinct_… tract20                         2024        2024        2018
10 voter_precinct_… tract20                         2024        2024        2018
# ℹ 99 more rows
# ℹ 9 more variables: planning_geog <chr>, reg_voters <dbl>,
#   ballots_cast <dbl>, regvote_turnout <dbl>, adult_18plus <dbl>,
#   acs_year <dbl>, acs_reliability <chr>, pop18_turnout <dbl>,
#   registered_pop18 <dbl>
…
df24_tract_above1_adultpop_dec_simp <- df24_tract_above1_adultpop_dec %>% 
  select(planning_geog, ballots_cast, adult_18plus, pop18_turnout)

There are 10 tracts over 100% - compared to 9 tracts over 100% when considering the adult population (by tract, 2023 5y estimates) and compared to 11 tracts when considering the total population.

where number of registered voters is greater than the number of adults 18+

df24_tract_above1_adultpop_reg_dec <- df24_tract_adult_dec %>% 
  filter(registered_pop18>1)

df24_tract_above1_adultpop_reg_dec

# A tibble: 115 × 13
   data_geog_type planning_geog_type ofm_estimate_year ofm_vintage planning_geog
   <chr>          <chr>                          <int>       <int> <chr>        
 1 voter_precinc… tract20                         2024        2024 53033000500  
 2 voter_precinc… tract20                         2024        2024 53033003100  
 3 voter_precinc… tract20                         2024        2024 53033003400  
 4 voter_precinc… tract20                         2024        2024 53033004101  
 5 voter_precinc… tract20                         2024        2024 53033004201  
 6 voter_precinc… tract20                         2024        2024 53033005100  
 7 voter_precinc… tract20                         2024        2024 53033005600  
 8 voter_precinc… tract20                         2024        2024 53033009801  
 9 voter_precinc… tract20                         2024        2024 53033010302  
10 voter_precinc… tract20                         2024        2024 53033010602  
# ℹ 105 more rows
# ℹ 8 more variables: reg_voters <dbl>, ballots_cast <dbl>,
#   regvote_turnout <dbl>, adult_18plus <dbl>, acs_year <dbl>,
#   acs_reliability <chr>, pop18_turnout <dbl>, registered_pop18 <dbl>
…
